# Configuration file
# Generated on 02/02/13 2:36 PM

####################
# _entry_player_
####################

_entry_player_ {
    S:prefix=
    S:suffix=
}


####################
# nameless_noob
####################

nameless_noob {
    S:prefix=
    S:suffix=
}


####################
# nulifier
####################

nulifier {
    S:prefix=
    S:suffix=
}

####################
# mcimolini
####################

mcimolini {
    S:prefix=
    S:suffix=
}

####################
# remcogito
####################

remcogito {
    S:prefix=
    S:suffix=
}

